<?xml version="1.0" encoding="UTF-8"?>
<svg version="1.1" viewBox="0 0 372 610" xmlns="http://www.w3.org/2000/svg">
<title>shape2 copy</title>
<desc>Created with Sketch.</desc>
<g fill="none" fill-rule="evenodd">
<path d="m-6.8034e-12 25.263c24.373-15.863 53.225-24.853 82.492-25.251 0.76261-0.0086495 1.5258-0.012193 2.2885-0.012193l-3.99e-5 -3.1698e-12c0.06788-1.0881e-8 0.13572 2.801e-5 0.20355 8.2963e-5 53.005 0.257 104.9 29.727 132.5 76.002h0.098094c52.853 0.32899 104.28 29.442 131.53 74.362 27.803 45.836 28.59 106.18 3.5119 154 6.8659 12.099 12.129 25.233 15.414 39.158 13.055 55.34-6.7342 117.03-51.223 154.26-27.431 22.95-63.124 35.327-98.983 35.59-27.223 45.941-79.159 76.634-133.35 76.634-29.952 0-59.434-9.604-84.482-26.293l2.0823e-6 -10.527c32.865 23.329 75.318 33.421 115.5 24.733 37.813-8.1765 71.686-32.278 92.5-65.177-17.945-1.0059-35.743-5.109-52.374-12.503-28.018-12.457-51.546-33.926-67.773-60.233l-0.34814 0.56301c-19.791 31.876-51.692 55.615-87.505 66.405l1.7764e-15 -8.4633c4.6836-1.4649 9.3022-3.1824 13.833-5.1575 26.252-11.444 48.581-31.082 64.167-55.24-27.719-1.2331-54.798-10.691-78-26.315l1.2196e-6 -7.05c23.721 16.684 52.216 26.682 81.528 27.258 0.15804-0.27011 0.31541-0.54022 0.47211-0.81168-18.061-33.874-24.342-74.477-13.434-113.8 0.12857-0.46228 0.25916-0.92456 0.39242-1.3855-4.2805 4.6678-8.885 9.085-13.806 13.211-16.11 13.506-35.035 23.333-55.153 29.189l4.4409e-15 -9.0011c32.163-10.275 60.754-31.834 78.969-60.349l0.030863-0.048936c-28.277 1.1085-56.006 10.642-79 26.863l-4.4409e-15 -9.9419c14.676-9.5786 30.98-16.66 48-20.876-17.114-4.2151-33.355-11.581-48-21.437v-11.055c22.98 16.21 50.644 26.006 79 27.447-13.106-20.502-31.179-37.895-52.864-49.574-8.3487-4.4965-17.105-8.1583-26.136-10.95l-2.1316e-14 -8.8403c26.045 7.9734 50.085 22.671 68.869 42.364-10.618-38.019-6.9182-80.248 12.131-116-28.881 0.74338-57.304 10.149-81 26.559l-2.6645e-15 -6.1374c23.306-15.435 50.903-24.338 79-25.483-8.2505-13.138-18.735-25.078-31.428-35.141-14.135-11.206-30.323-19.72-47.572-25.105l-5.3291e-15 -8.6188c34.841 10.839 66.027 33.928 86.106 64.926l0.077392-0.1229c25.908-40.819 72.044-68.064 120.82-71.335-6.3973-10.241-14.122-19.74-23.134-28.166-26.589-24.859-62.388-39.197-99.34-39.376h-0.94755c-29.863 0.14422-59.211 10.054-83.578 27.142l3.1695e-6 -10.879zm213.45 361.74c-25.779 39.901-70.625 67.157-118.45 70.676 4.6452 7.4538 10.012 14.513 16.097 21.049 26.02 27.951 63.311 44.944 101.45 46.275 1.1601-2.1251 2.2665-4.2819 3.3179-6.469 19.668-40.915 18.773-91.23-2.4163-131.53zm134.44-74c-5.2126 8.4881-11.298 16.495-18.247 23.852-27.728 29.353-67.347 47.107-107.63 48.347 20.739 41.901 23.058 93.3 1.9668 137.11-0.43438 0.90256-0.87817 1.8004-1.3314 2.6929 45.842-1.6239 90.424-25.693 116.48-64.655 28.611-42.789 31.507-100.74 8.7703-147.34zm-242.77 23c10.453 38.224 6.5064 80.553-12.107 116 45.642-2.6544 89.277-28.268 115-67.279-38.667-2.5017-76.069-20.218-102.89-48.721zm-18.219-21c-18.646 39.628-18.446 87.85 0.17292 128 8.6968-17.828 13.941-37.46 14.812-57.68 1.0428-24.224-4.3918-48.526-14.985-70.32zm132.11-82c21.843 41.917 24.557 93.985 3.2826 137.94-0.82485 1.7042-1.6827 3.391-2.5742 5.059 19.025-0.23282 38.035-4.0714 55.687-11.779 28.102-12.271 52.04-33.606 67.605-59.923-4.9073-8.4561-10.726-16.452-17.456-23.81-26.816-29.319-65.859-46.864-105.85-47.482l-0.69085-0.006039zm-124 77c7.5685 12.023 16.963 23.007 28.103 32.417 23.395 19.761 53.266 31.331 83.897 33.583-24.493-37.441-66.563-62.671-112-66zm120.58-73c-0.87545 1.3952-1.7758 2.7762-2.701 4.1445-21.476 31.763-55.452 54.385-92.883 63.538 25.505 6.0556 49.448 18.506 68.95 36.323 10.269 9.3814 19.088 20.195 26.33 31.995 4.2474-7.9647 7.7694-16.388 10.453-25.202 11.071-36.358 7.3434-77.057-10.149-110.8zm-8.5841-4c-44.689 3.4235-87.388 28.258-112 67 5.4454-0.34882 10.888-1.0215 16.299-2.0303 38.875-7.2484 74.119-31.405 95.701-64.97zm15-148c21.762 42.95 21.752 95.933 0.062343 139.48 49.615 1.5981 97.251 29.334 124.85 71.524 1.4453-2.8878 2.7927-5.8274 4.0382-8.812 17.457-41.859 14.076-91.859-9.1134-130.97-24.645-41.565-70.617-69.243-119.84-71.218zm-135.57 81c-1.5138 3.0706-2.9184 6.2083-4.2071 9.407-15.347 38.1-13.127 82.405 4.6858 119.59 19.045-39.861 18.676-88.504-0.47878-129zm5.5664-9c2.7134 4.9997 5.1493 10.174 7.281 15.509 13.073 32.709 13.905 69.685 3.625 103.49 26.74-29.3 64.482-48.935 105.09-51.743-25.287-38.693-68.98-64.605-116-67.257zm120.34-72c-46.578 1.7229-91.551 27.521-117.34 67.125 35.093 2.3962 69.163 17.158 94.719 41.315 9.2793 8.7717 17.303 18.744 23.978 29.56 0.92914-1.7504 1.8214-3.5224 2.6769-5.3145 19.765-41.426 17.69-91.884-4.0294-132.69z" fill="#FFCD00"/>
</g>
</svg>
